%YAML 1.1
%TAG !u! tag:unity3d.com,2011:
--- !u!114 &11400000
MonoBehaviour:
  m_ObjectHideFlags: 0
  m_CorrespondingSourceObject: {fileID: 0}
  m_PrefabInstance: {fileID: 0}
  m_PrefabAsset: {fileID: 0}
  m_GameObject: {fileID: 0}
  m_Enabled: 1
  m_EditorHideFlags: 0
  m_Script: {fileID: 11500000, guid: cd01f6428dc8cb34fb7a12bc6ae7f216, type: 3}
  m_Name: LevelManager
  m_EditorClassIdentifier: 
  levels:
  - number: 1
    name: "\u0412 \u041F\u0423\u0422\u042C"
    image: {fileID: 21300000, guid: 541ef3c25ae20904e898eb0c2dd5600e, type: 3}
    price: 0
    levelType: 0
    letters:
    - Index: 0
    - Index: 1
    - Index: 2
    - Index: 3
    - Index: 4
    levels: 
    subLevels:
    - matchPrice: 1
      targetMatchPrice: 2
      useColor: 1
      needMatch: 3
    resetScoreOnUnlock: 0
  - number: 2
    name: "\u041A\u0410\u0420\u0422\u0410"
    image: {fileID: 21300000, guid: f659c1c8e01eafe40803afb1c0a9e45c, type: 3}
    price: 30
    levelType: 0
    letters:
    - Index: 5
    - Index: 6
    - Index: 7
    - Index: 8
    - Index: 9
    levels: 
    subLevels:
    - matchPrice: 1
      targetMatchPrice: 3
      useColor: 1
      needMatch: 3
    resetScoreOnUnlock: 0
  - number: 3
    name: "\u0413\u041B\u0410\u0417"
    image: {fileID: 21300000, guid: a4661c7b21a4b4042a1b7bf5db174071, type: 3}
    price: 45
    levelType: 0
    letters:
    - Index: 10
    - Index: 11
    - Index: 12
    - Index: 13
    - Index: 14
    levels: 
    subLevels:
    - matchPrice: 1
      targetMatchPrice: 4
      useColor: 1
      needMatch: 3
    resetScoreOnUnlock: 0
  - number: 4
    name: "\u041F\u041E\u0420\u0422"
    image: {fileID: 21300000, guid: 192737da74dcf7b44bcc66522cd3db73, type: 3}
    price: 60
    levelType: 1
    letters:
    - Index: 0
    - Index: 1
    - Index: 2
    - Index: 3
    - Index: 4
    - Index: 5
    - Index: 6
    - Index: 7
    - Index: 8
    - Index: 9
    - Index: 10
    - Index: 11
    - Index: 12
    - Index: 13
    - Index: 14
    levels: 010000000200000003000000
    subLevels:
    - matchPrice: 1
      targetMatchPrice: 2
      useColor: 1
      needMatch: 2
    - matchPrice: 1
      targetMatchPrice: 2
      useColor: 1
      needMatch: 2
    - matchPrice: 1
      targetMatchPrice: 2
      useColor: 1
      needMatch: 2
    resetScoreOnUnlock: 0
  - number: 5
    name: "\u0417\u0412\u0415\u0420\u0418"
    image: {fileID: 21300000, guid: 2d4c312274a97f6479991ec506592987, type: 3}
    price: 60
    levelType: 0
    letters:
    - Index: 15
    - Index: 16
    - Index: 17
    - Index: 18
    - Index: 19
    levels: 
    subLevels:
    - matchPrice: 1
      targetMatchPrice: 5
      useColor: 1
      needMatch: 3
    resetScoreOnUnlock: 0
  - number: 6
    name: "\u041F\u0420\u0418\u0420\u041E\u0414\u0410"
    image: {fileID: 21300000, guid: 664cbd384d9e6a443b9c39054783e7e3, type: 3}
    price: 75
    levelType: 0
    letters:
    - Index: 20
    - Index: 21
    - Index: 22
    - Index: 23
    - Index: 24
    levels: 
    subLevels:
    - matchPrice: 1
      targetMatchPrice: 6
      useColor: 1
      needMatch: 3
    resetScoreOnUnlock: 0
  - number: 7
    name: "\u041C\u0410\u0421\u0422\u0415\u0420\u0410"
    image: {fileID: 21300000, guid: bffca23444d199a49b1b28b881d89b18, type: 3}
    price: 90
    levelType: 0
    letters:
    - Index: 25
    - Index: 26
    - Index: 27
    - Index: 28
    - Index: 29
    levels: 
    subLevels:
    - matchPrice: 1
      targetMatchPrice: 7
      useColor: 1
      needMatch: 3
    resetScoreOnUnlock: 0
  - number: 8
    name: "\u0420\u042B\u041D\u041E\u041A"
    image: {fileID: 21300000, guid: a57b0be55a5d4334d9619da0e4970f25, type: 3}
    price: 105
    levelType: 1
    letters: []
    levels: 070000000600000005000000
    subLevels:
    - matchPrice: 1
      targetMatchPrice: 5
      useColor: 1
      needMatch: 2
    - matchPrice: 1
      targetMatchPrice: 5
      useColor: 1
      needMatch: 2
    - matchPrice: 1
      targetMatchPrice: 5
      useColor: 1
      needMatch: 2
    resetScoreOnUnlock: 0
  - number: 9
    name: "\u0413\u0420\u0410\u041D\u0418\u0426\u0410"
    image: {fileID: 21300000, guid: 171576246fac6e34e8c2ffee4ae382d1, type: 3}
    price: 150
    levelType: 2
    letters: []
    levels: 010000000200000003000000050000000600000007000000
    subLevels:
    - matchPrice: 1
      targetMatchPrice: 6
      useColor: 1
      needMatch: 1
    - matchPrice: 1
      targetMatchPrice: 6
      useColor: 1
      needMatch: 1
    - matchPrice: 1
      targetMatchPrice: 6
      useColor: 1
      needMatch: 1
    resetScoreOnUnlock: 0
  - number: 10
    name: "\u0426\u0418\u0424\u0420\u042B"
    image: {fileID: 21300000, guid: 8793395e0c64b2c418faf1715df50e18, type: 3}
    price: 180
    levelType: 0
    letters:
    - Index: 30
    - Index: 31
    - Index: 32
    - Index: 33
    - Index: 34
    levels: 
    subLevels:
    - matchPrice: 1
      targetMatchPrice: 8
      useColor: 1
      needMatch: 3
    resetScoreOnUnlock: 0
  - number: 11
    name: "\u041A\u041B\u042E\u0427\u0418"
    image: {fileID: 21300000, guid: 95d139ff296336846b72a6c594f7be53, type: 3}
    price: 120
    levelType: 0
    letters:
    - Index: 35
    - Index: 36
    - Index: 37
    - Index: 38
    - Index: 39
    levels: 
    subLevels:
    - matchPrice: 1
      targetMatchPrice: 9
      useColor: 1
      needMatch: 3
    resetScoreOnUnlock: 0
  - number: 12
    name: "\u0420\u0415\u0421\u0423\u0420\u0421\u042B"
    image: {fileID: 21300000, guid: 50436364360b0404fa799cd0442eb7f0, type: 3}
    price: 135
    levelType: 0
    letters:
    - Index: 40
    - Index: 41
    - Index: 42
    - Index: 43
    - Index: 44
    levels: 
    subLevels:
    - matchPrice: 1
      targetMatchPrice: 10
      useColor: 1
      needMatch: 3
    resetScoreOnUnlock: 0
  - number: 13
    name: "\u041C\u041E\u0421\u0422"
    image: {fileID: 21300000, guid: 4a1917d59a2795b44ae2e77ebc2a3a4a, type: 3}
    price: 150
    levelType: 1
    letters: []
    levels: 0c0000000b0000000a000000
    subLevels:
    - matchPrice: 1
      targetMatchPrice: 8
      useColor: 1
      needMatch: 2
    - matchPrice: 1
      targetMatchPrice: 8
      useColor: 1
      needMatch: 2
    - matchPrice: 1
      targetMatchPrice: 8
      useColor: 1
      needMatch: 2
    resetScoreOnUnlock: 1
  - number: 14
    name: "\u0418\u0413\u0420\u042B"
    image: {fileID: 21300000, guid: 89a0bc23573433046a85031a75938a73, type: 3}
    price: 240
    levelType: 2
    letters: []
    levels: 0100000002000000030000000500000006000000070000000a0000000b0000000c000000
    subLevels:
    - matchPrice: 1
      targetMatchPrice: 9
      useColor: 1
      needMatch: 1
    - matchPrice: 1
      targetMatchPrice: 9
      useColor: 1
      needMatch: 1
    - matchPrice: 1
      targetMatchPrice: 9
      useColor: 1
      needMatch: 1
    resetScoreOnUnlock: 0
  - number: 15
    name: "\u041E\u0425\u041E\u0422\u0410"
    image: {fileID: 21300000, guid: a8621eb241dd69049ba531bfb5b0e701, type: 3}
    price: 405
    levelType: 0
    letters:
    - Index: 45
    - Index: 46
    - Index: 47
    - Index: 48
    - Index: 49
    levels: 
    subLevels:
    - matchPrice: 1
      targetMatchPrice: 11
      useColor: 1
      needMatch: 3
    resetScoreOnUnlock: 0
  - number: 16
    name: "\u0428\u0418\u0424\u0420"
    image: {fileID: 21300000, guid: 144635ccf154c8a40b9f5ed33305f0b5, type: 3}
    price: 165
    levelType: 0
    letters:
    - Index: 50
    - Index: 51
    - Index: 52
    - Index: 53
    - Index: 54
    levels: 
    subLevels:
    - matchPrice: 1
      targetMatchPrice: 12
      useColor: 1
      needMatch: 3
    resetScoreOnUnlock: 0
  - number: 17
    name: "\u0414\u0412\u041E\u0420\u0415\u0426"
    image: {fileID: 21300000, guid: 22d64a99ed5588043b704e1a59b551c4, type: 3}
    price: 180
    levelType: 0
    letters:
    - Index: 55
    - Index: 56
    - Index: 57
    - Index: 58
    - Index: 59
    levels: 
    subLevels:
    - matchPrice: 1
      targetMatchPrice: 13
      useColor: 1
      needMatch: 3
    resetScoreOnUnlock: 0
  - number: 18
    name: "\u0422\u0410\u0419\u041D\u0410"
    image: {fileID: 21300000, guid: e045aa25d2dd4c3478eb665cb0d15626, type: 3}
    price: 195
    levelType: 1
    letters: []
    levels: 11000000100000000f000000
    subLevels:
    - matchPrice: 1
      targetMatchPrice: 11
      useColor: 1
      needMatch: 2
    - matchPrice: 1
      targetMatchPrice: 11
      useColor: 1
      needMatch: 2
    - matchPrice: 1
      targetMatchPrice: 11
      useColor: 1
      needMatch: 2
    resetScoreOnUnlock: 0
  - number: 19
    name: "\u0425\u0420\u0410\u041D\u0418\u0422\u0415\u041B\u042C "
    image: {fileID: 21300000, guid: bb2bf1638654ead4f9243cf45562a949, type: 3}
    price: 330
    levelType: 2
    letters: []
    levels: 0100000002000000030000000500000006000000070000000a0000000b0000000c0000000f0000001000000011000000
    subLevels:
    - matchPrice: 1
      targetMatchPrice: 12
      useColor: 1
      needMatch: 1
    - matchPrice: 1
      targetMatchPrice: 12
      useColor: 1
      needMatch: 1
    - matchPrice: 1
      targetMatchPrice: 12
      useColor: 1
      needMatch: 1
    resetScoreOnUnlock: 0
  - number: 20
    name: "\u0422\u042C\u041C\u0410"
    image: {fileID: 21300000, guid: 1b4305a9b2286f247ba8eb976012c799, type: 3}
    price: 720
    levelType: 1
    letters: []
    levels: 070000000600000005000000
    subLevels:
    - matchPrice: 1
      targetMatchPrice: 13
      useColor: 0
      needMatch: 1
    - matchPrice: 1
      targetMatchPrice: 13
      useColor: 0
      needMatch: 1
    - matchPrice: 1
      targetMatchPrice: 13
      useColor: 0
      needMatch: 1
    resetScoreOnUnlock: 0
  - number: 21
    name: "\u041F\u0415\u0429\u0415\u0420\u0410"
    image: {fileID: 21300000, guid: 3faa9eb52b272724b891b3ed28ffa670, type: 3}
    price: 330
    levelType: 2
    letters: []
    levels: 010000000200000003000000050000000600000007000000
    subLevels:
    - matchPrice: 1
      targetMatchPrice: 14
      useColor: 0
      needMatch: 1
    - matchPrice: 1
      targetMatchPrice: 14
      useColor: 0
      needMatch: 1
    - matchPrice: 1
      targetMatchPrice: 14
      useColor: 0
      needMatch: 1
    resetScoreOnUnlock: 0
  - number: 22
    name: "\u0412\u041E\u0414\u041E\u041F\u0410\u0414"
    image: {fileID: 21300000, guid: 7988e0db8e9542445afd8d1fa08f2a6a, type: 3}
    price: 420
    levelType: 2
    letters: []
    levels: 0100000002000000030000000500000006000000070000000a0000000b0000000c000000
    subLevels:
    - matchPrice: 1
      targetMatchPrice: 15
      useColor: 0
      needMatch: 1
    - matchPrice: 1
      targetMatchPrice: 15
      useColor: 0
      needMatch: 1
    - matchPrice: 1
      targetMatchPrice: 15
      useColor: 0
      needMatch: 1
    resetScoreOnUnlock: 0
  - number: 23
    name: "\u0411\u0418\u0422\u0412\u0410"
    image: {fileID: 21300000, guid: 1b0f81d2e54b1ed40b967b1dab265a7b, type: 3}
    price: 675
    levelType: 2
    letters: []
    levels: 0100000002000000030000000500000006000000070000000a0000000b0000000c0000000f0000001000000011000000
    subLevels:
    - matchPrice: 1
      targetMatchPrice: 16
      useColor: 0
      needMatch: 2
    - matchPrice: 1
      targetMatchPrice: 16
      useColor: 0
      needMatch: 2
    - matchPrice: 1
      targetMatchPrice: 16
      useColor: 0
      needMatch: 2
    resetScoreOnUnlock: 0
  - number: 24
    name: "\u041E\u0417\u0415\u0420\u041E"
    image: {fileID: 21300000, guid: 42863ec31711af84ba1dc64b3cb18758, type: 3}
    price: 2022
    levelType: 0
    letters: []
    levels: 
    subLevels: []
    resetScoreOnUnlock: 0
